,date,city,rent,product
0,2022-01-01,Eskişehir,5,1811
1,2022-01-02,Malatya,10,1094
2,2022-01-03,Kütahya,16,1090
3,2022-01-04,Zonguldak,8,1790
4,2022-01-05,Erzurum,16,1501
5,2022-01-06,İstanbul,4,1068
6,2022-01-07,Tekirdağ,16,1704
7,2022-01-08,Mardin,8,1256
8,2022-01-09,Bolu,16,1642
9,2022-01-10,Kahramanmaraş,5,1711
10,2022-01-11,Aydın,17,1833
11,2022-01-12,Hatay,2,1293
12,2022-01-13,Bingöl,8,1110
13,2022-01-14,Ardahan,2,1328
14,2022-01-15,Ordu,7,1127
15,2022-01-16,Van,4,1748
16,2022-01-17,Aydın,13,1419
17,2022-01-18,Aksaray,7,1354
18,2022-01-19,Düzce,15,1134
19,2022-01-20,Diyarbakır,15,1776
20,2022-01-21,Adıyaman,17,1416
21,2022-01-22,Isparta,14,1679
22,2022-01-23,Gaziantep,4,1415
23,2022-01-24,Tekirdağ,4,1203
24,2022-01-25,Isparta,11,1356
25,2022-01-26,Rize,5,1621
26,2022-01-27,Zonguldak,11,1048
27,2022-01-28,Kırıkkale,15,1471
28,2022-01-29,Kayseri,1,1190
29,2022-01-30,Rize,2,1857
30,2022-01-31,Kocaeli,8,1962
31,2022-02-01,Kahramanmaraş,8,1154
32,2022-02-02,Nevşehir,12,1868
33,2022-02-03,İzmir,14,1308
34,2022-02-04,Amasya,8,1398
35,2022-02-05,Sakarya,13,1924
36,2022-02-06,Erzincan,16,1771
37,2022-02-07,Afyon,4,1264
38,2022-02-08,İzmir,15,1419
39,2022-02-09,Sivas,6,1726
40,2022-02-10,Balıkesir,17,1174
41,2022-02-11,Trabzon,4,1020
42,2022-02-12,Ankara,15,1277
43,2022-02-13,Sinop,7,1352
44,2022-02-14,Afyon,1,1407
45,2022-02-15,Trabzon,14,1448
46,2022-02-16,Düzce,12,1811
47,2022-02-17,Ordu,9,1740
48,2022-02-18,Nevşehir,10,1759
49,2022-02-19,Edirne,16,1674
50,2022-02-20,Kars,14,1517
51,2022-02-21,Karaman,1,1138
52,2022-02-22,Aydın,9,1704
53,2022-02-23,Aksaray,3,1017
54,2022-02-24,Kars,5,1977
55,2022-02-25,Batman,16,1548
56,2022-02-26,Kilis,10,1686
57,2022-02-27,Van,1,1497
58,2022-02-28,Trabzon,9,1330
59,2022-03-01,Hatay,5,1389
60,2022-03-02,Balıkesir,13,1845
61,2022-03-03,Kayseri,8,1005
62,2022-03-04,Yalova,14,1941
63,2022-03-05,Kastamonu,6,1916
64,2022-03-06,Erzurum,10,1779
65,2022-03-07,Bitlis,5,1067
66,2022-03-08,Karabük,16,1249
67,2022-03-09,Van,5,1731
68,2022-03-10,Diyarbakır,2,1762
69,2022-03-11,Çankırı,1,1986
70,2022-03-12,Siirt,4,1166
71,2022-03-13,Bayburt,17,1539
72,2022-03-14,Bitlis,2,1121
73,2022-03-15,Yozgat,3,1933
74,2022-03-16,Amasya,1,1911
75,2022-03-17,Hakkari,2,1031
76,2022-03-18,Kırklareli,10,1693
77,2022-03-19,Balıkesir,3,1974
78,2022-03-20,Burdur,3,1602
79,2022-03-21,İçel (Mersin),16,1481
80,2022-03-22,Çanakkale,6,1374
81,2022-03-23,Artvin,2,1943
82,2022-03-24,Eskişehir,15,1641
83,2022-03-25,İstanbul,7,1322
84,2022-03-26,Kırıkkale,14,1834
85,2022-03-27,Batman,7,1162
86,2022-03-28,Samsun,8,1531
87,2022-03-29,Karaman,2,1758
88,2022-03-30,Bolu,3,1540
89,2022-03-31,İstanbul,3,1526
90,2022-04-01,Çanakkale,2,1244
91,2022-04-02,Tokat,5,1823
92,2022-04-03,Bitlis,17,1823
93,2022-04-04,Çanakkale,8,1497
94,2022-04-05,Van,3,1409
95,2022-04-06,Isparta,11,1161
96,2022-04-07,Van,13,1909
97,2022-04-08,Sakarya,10,1136
98,2022-04-09,Sivas,1,1492
99,2022-04-10,Tekirdağ,9,1910
100,2022-04-11,Tunceli,1,1418
101,2022-04-12,Denizli,15,1074
102,2022-04-13,Adana,6,1020
103,2022-04-14,Samsun,16,1269
104,2022-04-15,Karaman,5,1449
105,2022-04-16,Yalova,12,1247
106,2022-04-17,Ordu,14,1826
107,2022-04-18,Şırnak,3,1081
108,2022-04-19,Aksaray,4,1488
109,2022-04-20,Hatay,3,1305
110,2022-04-21,Artvin,12,1303
111,2022-04-22,Karabük,7,1059
112,2022-04-23,Muş,7,1437
113,2022-04-24,İstanbul,10,1171
114,2022-04-25,Kilis,12,1181
115,2022-04-26,Giresun,17,1974
116,2022-04-27,Gaziantep,9,1679
117,2022-04-28,Iğdır,14,1956
118,2022-04-29,Karaman,8,1554
119,2022-04-30,Ankara,11,1828
120,2022-05-01,Adana,14,1866
121,2022-05-02,Bolu,9,1329
122,2022-05-03,Siirt,4,1893
123,2022-05-04,Siirt,2,1699
124,2022-05-05,Sivas,5,1949
125,2022-05-06,Antalya,3,1740
126,2022-05-07,Şırnak,6,1577
127,2022-05-08,Tokat,15,1195
128,2022-05-09,Burdur,12,1452
129,2022-05-10,Kırşehir,7,1658
130,2022-05-11,Erzurum,5,1462
131,2022-05-12,Kars,2,1483
132,2022-05-13,Karabük,2,1184
133,2022-05-14,Bartın,4,1905
134,2022-05-15,Rize,5,1430
135,2022-05-16,Tunceli,1,1727
136,2022-05-17,Sivas,1,1898
137,2022-05-18,İzmir,1,1401
138,2022-05-19,Afyon,8,1451
139,2022-05-20,Bitlis,16,1301
140,2022-05-21,Sivas,11,1544
141,2022-05-22,Balıkesir,1,1885
142,2022-05-23,Afyon,7,1068
143,2022-05-24,Erzurum,13,1641
144,2022-05-25,Muş,16,1916
145,2022-05-26,Adıyaman,11,1271
146,2022-05-27,Kütahya,15,1229
147,2022-05-28,Çorum,11,1603
148,2022-05-29,Kırşehir,2,1702
149,2022-05-30,Tunceli,10,1147
150,2022-05-31,Burdur,7,1591
151,2022-06-01,Afyon,15,1465
152,2022-06-02,Karabük,11,1224
153,2022-06-03,Aydın,1,1752
154,2022-06-04,Bingöl,5,1770
155,2022-06-05,Giresun,4,1715
156,2022-06-06,Artvin,9,1415
157,2022-06-07,Tokat,7,1569
158,2022-06-08,Iğdır,10,1462
159,2022-06-09,Tekirdağ,7,1643
160,2022-06-10,Kırıkkale,4,1275
161,2022-06-11,Burdur,8,1753
162,2022-06-12,Osmaniye,16,1213
163,2022-06-13,Rize,16,1506
164,2022-06-14,Kahramanmaraş,1,1168
165,2022-06-15,Gümüşhane,17,1420
166,2022-06-16,Balıkesir,7,1873
167,2022-06-17,Muş,12,1084
168,2022-06-18,Aydın,5,1428
169,2022-06-19,Kırklareli,5,1360
170,2022-06-20,Bitlis,8,1933
171,2022-06-21,Sakarya,13,1510
172,2022-06-22,Amasya,3,1001
173,2022-06-23,Rize,8,1849
174,2022-06-24,Tunceli,5,1242
175,2022-06-25,Tokat,17,1847
176,2022-06-26,Samsun,13,1304
177,2022-06-27,Isparta,17,1701
178,2022-06-28,Kars,2,1725
179,2022-06-29,Karabük,16,1025
180,2022-06-30,Gümüşhane,1,1305
181,2022-07-01,Afyon,1,1080
182,2022-07-02,Ardahan,15,1846
183,2022-07-03,Düzce,11,1275
184,2022-07-04,Çanakkale,1,1005
185,2022-07-05,Afyon,12,1313
186,2022-07-06,Muş,13,1833
187,2022-07-07,Ağrı,14,1052
188,2022-07-08,Kocaeli,2,1303
189,2022-07-09,Bilecik,11,1320
190,2022-07-10,Mardin,5,1630
191,2022-07-11,Diyarbakır,9,1292
192,2022-07-12,Ankara,4,1012
193,2022-07-13,Eskişehir,6,1533
194,2022-07-14,İçel (Mersin),10,1971
195,2022-07-15,Konya,8,1518
196,2022-07-16,Iğdır,12,1948
197,2022-07-17,Bingöl,16,1721
198,2022-07-18,Hakkari,13,1384
199,2022-07-19,Antalya,12,1026
200,2022-07-20,Kırklareli,15,1083
201,2022-07-21,Sivas,11,1694
202,2022-07-22,Kütahya,2,1609
203,2022-07-23,Tokat,5,1402
204,2022-07-24,Elazığ,3,1483
205,2022-07-25,Çankırı,7,1953
206,2022-07-26,Giresun,10,1292
207,2022-07-27,İçel (Mersin),15,1955
208,2022-07-28,Sakarya,4,1118
209,2022-07-29,Balıkesir,15,1438
210,2022-07-30,Bitlis,17,1514
211,2022-07-31,Iğdır,9,1265
212,2022-08-01,Amasya,10,1579
213,2022-08-02,Bolu,13,1577
214,2022-08-03,İçel (Mersin),17,1459
215,2022-08-04,Erzurum,4,1770
216,2022-08-05,Çanakkale,14,1207
217,2022-08-06,Kütahya,1,1404
218,2022-08-07,Aydın,1,1411
219,2022-08-08,Şanlıurfa,2,1436
220,2022-08-09,Bursa,3,1917
221,2022-08-10,Tokat,14,1864
222,2022-08-11,Manisa,2,1062
223,2022-08-12,Ardahan,9,1630
224,2022-08-13,Kayseri,7,1031
225,2022-08-14,Aydın,1,1966
226,2022-08-15,Iğdır,6,1413
227,2022-08-16,Kastamonu,2,1261
228,2022-08-17,Kahramanmaraş,15,1793
229,2022-08-18,Isparta,12,1950
230,2022-08-19,Eskişehir,17,1181
231,2022-08-20,Tokat,3,1597
232,2022-08-21,Eskişehir,7,1850
233,2022-08-22,Gaziantep,12,1047
234,2022-08-23,Giresun,8,1765
235,2022-08-24,Bartın,16,1229
236,2022-08-25,Çorum,7,1482
237,2022-08-26,Rize,11,1556
238,2022-08-27,Kayseri,11,1257
239,2022-08-28,Kastamonu,4,1898
240,2022-08-29,Tokat,17,1093
241,2022-08-30,Edirne,3,1260
242,2022-08-31,Muğla,14,1269
243,2022-09-01,Burdur,10,1077
244,2022-09-02,Kahramanmaraş,9,1922
245,2022-09-03,Siirt,7,1199
246,2022-09-04,Isparta,8,1225
247,2022-09-05,Ordu,13,1539
248,2022-09-06,Tunceli,7,1753
249,2022-09-07,Kırıkkale,13,1758
250,2022-09-08,Düzce,14,1030
251,2022-09-09,Burdur,4,1648
252,2022-09-10,Kayseri,1,1338
253,2022-09-11,İzmir,2,1775
254,2022-09-12,Bilecik,11,1733
255,2022-09-13,Tokat,17,1100
256,2022-09-14,Denizli,17,1418
257,2022-09-15,Ankara,12,1714
258,2022-09-16,Afyon,8,1913
259,2022-09-17,Nevşehir,12,1359
260,2022-09-18,Gümüşhane,8,1505
261,2022-09-19,Samsun,2,1462
262,2022-09-20,Bitlis,13,1890
263,2022-09-21,Muş,15,1780
264,2022-09-22,Kahramanmaraş,16,1633
265,2022-09-23,Bolu,15,1953
266,2022-09-24,Düzce,13,1906
267,2022-09-25,Tokat,3,1311
268,2022-09-26,Rize,5,1109
269,2022-09-27,Ardahan,14,1199
270,2022-09-28,Bitlis,6,1402
271,2022-09-29,Rize,9,1605
272,2022-09-30,Tokat,17,1443
273,2022-10-01,Trabzon,12,1780
274,2022-10-02,Çorum,15,1753
275,2022-10-03,Elazığ,9,1574
276,2022-10-04,Adana,9,1452
277,2022-10-05,Erzurum,11,1393
278,2022-10-06,Batman,16,1819
279,2022-10-07,Şırnak,6,1096
280,2022-10-08,Batman,7,1107
281,2022-10-09,Bursa,5,1658
282,2022-10-10,Edirne,7,1737
283,2022-10-11,Afyon,11,1941
284,2022-10-12,Bolu,5,1708
285,2022-10-13,Manisa,6,1342
286,2022-10-14,Zonguldak,15,1269
287,2022-10-15,Siirt,10,1265
288,2022-10-16,İstanbul,6,1706
289,2022-10-17,Uşak,13,1445
290,2022-10-18,Sinop,8,1590
291,2022-10-19,Konya,12,1767
292,2022-10-20,Erzincan,4,1917
293,2022-10-21,Denizli,15,1369
294,2022-10-22,Hakkari,8,1842
295,2022-10-23,Afyon,6,1683
296,2022-10-24,Kocaeli,8,1878
297,2022-10-25,Gaziantep,4,1050
298,2022-10-26,Kütahya,8,1361
299,2022-10-27,Bilecik,2,1069
300,2022-10-28,Kars,1,1477
301,2022-10-29,Bursa,2,1494
302,2022-10-30,Erzurum,12,1201
303,2022-10-31,Kırklareli,7,1097
304,2022-11-01,Konya,9,1658
305,2022-11-02,Elazığ,7,1244
306,2022-11-03,Sinop,7,1587
307,2022-11-04,Tekirdağ,12,1738
308,2022-11-05,Batman,14,1008
309,2022-11-06,Kilis,12,1413
310,2022-11-07,Bursa,13,1560
311,2022-11-08,İzmir,15,1017
312,2022-11-09,Bayburt,13,1430
313,2022-11-10,Karaman,11,1083
314,2022-11-11,Adıyaman,9,1822
315,2022-11-12,Yozgat,17,1785
316,2022-11-13,Aksaray,7,1612
317,2022-11-14,Adıyaman,8,1008
318,2022-11-15,Bayburt,13,1298
319,2022-11-16,Kastamonu,16,1431
320,2022-11-17,Gaziantep,5,1767
321,2022-11-18,Bitlis,17,1732
322,2022-11-19,Tokat,16,1928
323,2022-11-20,Niğde,1,1877
324,2022-11-21,Balıkesir,12,1784
325,2022-11-22,Batman,7,1779
326,2022-11-23,Çankırı,2,1517
327,2022-11-24,Sakarya,1,1435
328,2022-11-25,Şırnak,14,1764
329,2022-11-26,Denizli,16,1240
330,2022-11-27,Adıyaman,3,1099
331,2022-11-28,Bingöl,12,1514
332,2022-11-29,Bilecik,11,1970
333,2022-11-30,Sakarya,17,1068
334,2022-12-01,Bursa,8,1740
335,2022-12-02,Eskişehir,11,1245
336,2022-12-03,Kırşehir,3,1453
337,2022-12-04,Artvin,1,1719
338,2022-12-05,Uşak,5,1382
339,2022-12-06,Eskişehir,12,1208
340,2022-12-07,Iğdır,7,1298
341,2022-12-08,Erzincan,6,1641
342,2022-12-09,İstanbul,13,1705
343,2022-12-10,Kocaeli,6,1697
344,2022-12-11,Edirne,13,1427
345,2022-12-12,Ardahan,6,1075
346,2022-12-13,Kırşehir,11,1312
347,2022-12-14,Ankara,3,1864
348,2022-12-15,Bartın,15,1957
349,2022-12-16,Ardahan,15,1815
350,2022-12-17,Tekirdağ,1,1784
351,2022-12-18,Balıkesir,1,1235
352,2022-12-19,Kütahya,9,1506
353,2022-12-20,Giresun,5,1795
354,2022-12-21,Burdur,12,1443
355,2022-12-22,Bayburt,10,1658
356,2022-12-23,Karaman,9,1026
357,2022-12-24,Bingöl,9,1953
358,2022-12-25,Kocaeli,4,1782
359,2022-12-26,Şanlıurfa,11,1417
360,2022-12-27,Bartın,6,1816
361,2022-12-28,Isparta,4,1527
362,2022-12-29,Sivas,13,1195
363,2022-12-30,Hakkari,9,1622
